%YAML 1.1
%TAG !u! tag:unity3d.com,2011:
--- !u!114 &11400000
MonoBehaviour:
  m_ObjectHideFlags: 0
  m_PrefabParentObject: {fileID: 0}
  m_PrefabInternal: {fileID: 0}
  m_GameObject: {fileID: 0}
  m_Enabled: 1
  m_EditorHideFlags: 0
  m_Script: {fileID: 11500000, guid: 98110bbec016d1149a28e007e5b8e69f, type: 3}
  m_Name: VVTrack3
  m_EditorClassIdentifier: 
  trackData:
    noteLifetime: 1
    songDuration: 30
    song: {fileID: 8300000, guid: 8c4c7351fadaf4d42ba7e78e899ebc5d, type: 3}
    noteList:
    - hitTime: 1
      position: 0
    - hitTime: 1
      position: 1
    - hitTime: 1.5
      position: 2
    - hitTime: 2
      position: 2
    - hitTime: 2.25
      position: 1
    - hitTime: 2.5
      position: 3
    - hitTime: 2.5
      position: 0
    - hitTime: 3
      position: 0
    - hitTime: 3
      position: 2
    - hitTime: 4
      position: 3
    - hitTime: 4.25
      position: 1
    - hitTime: 4.25
      position: 2
    - hitTime: 4.5
      position: 3
    - hitTime: 4.5
      position: 0
    - hitTime: 4.75
      position: 1
    - hitTime: 4.8
      position: 2
    - hitTime: 4.85
      position: 3
    - hitTime: 4.9
      position: 0
    - hitTime: 5.25
      position: 1
    - hitTime: 5.25
      position: 2
    - hitTime: 5.5
      position: 3
    - hitTime: 5.5
      position: 0
    - hitTime: 5.5
      position: 2
    - hitTime: 5.5
      position: 1
    - hitTime: 6
      position: 0
    - hitTime: 7
      position: 2
    - hitTime: 6
      position: 0
    - hitTime: 8
      position: 2
    - hitTime: 9
      position: 1
    - hitTime: 10
      position: 0
    - hitTime: 11
      position: 1
    - hitTime: 12
      position: 2
    - hitTime: 13
      position: 3
    - hitTime: 14
      position: 0
    - hitTime: 14
      position: 3
    - hitTime: 15
      position: 1
    - hitTime: 16
      position: 2
    - hitTime: 17
      position: 1
    - hitTime: 17
      position: 0
    - hitTime: 18
      position: 1
    - hitTime: 18
      position: 3
    - hitTime: 19
      position: 2
    - hitTime: 20
      position: 0
    - hitTime: 20
      position: 1
    - hitTime: 21
      position: 2
    - hitTime: 21
      position: 3
    - hitTime: 22
      position: 1
    - hitTime: 23
      position: 4
    - hitTime: 24
      position: 2
    - hitTime: 25
      position: 3
    - hitTime: 25
      position: 0
    - hitTime: 26
      position: 1
    - hitTime: 27
      position: 2
    - hitTime: 28
      position: 0
    - hitTime: 28
      position: 2
    - hitTime: 29
      position: 1
    - hitTime: 29
      position: 3
    - hitTime: 29
      position: 1
    - hitTime: 30
      position: 0
    - hitTime: 30
      position: 1
